[14:24:14] INFO: Umbra 3 Optimizer version 3.3.22  (build: aa99894236119ba2e0eac5ca04d0133b3067a375)
[14:24:14] INFO: T: 20 O: 5 H: 0.25 B: 100
[14:24:15] INFO: Tile grid 104x8x104 (at -16,8,-28) created for scene: 1021 tiles (0 empties not included) in 0.604 seconds
[14:24:15] INFO: Using 4 threads to compute 1021 tiles, cache 4096 MB
[14:24:16] INFO: Tile processing complete, computed 0 tiles
[14:24:16] INFO: Strict view volumes: no
[14:24:16] INFO: Filtered 184/185 inside clusters
[14:24:16] INFO: Filtered 288/289 global clusters
[14:24:16] INFO: 1747/2035 cells reachable after global analysis
[14:24:18] INFO: collapsed leaf tiles 1021 => 4
[14:24:18] INFO: Generating LOD tiles using 4 threads
[14:24:19] INFO: Connecting LOD tiles
[14:24:19] INFO: Compressing lists
[14:24:19] INFO: Average index range size: 3.02
[14:24:19] INFO: object list: 44 B, cluster list: 4 B
[14:24:19] INFO: created tome with 7 tiles, 21 targets and 0 gates
[14:24:19] INFO: Checking cache...
[14:24:19] INFO: Cache check finished
[14:24:20] DEBUG: Total allocations 604404, peak 20175 (size 5 MB 891 kB 677 B)
